{
  "SKIP_HOST_UPDATE": true,
  "chromiumSwitches": {},
  "IS_MAXIMIZED": false,
  "IS_MINIMIZED": false,
  "WINDOW_BOUNDS": {
    "x": 3443,
    "y": 28,
    "width": 1074,
    "height": 1889
  },
  "MINIMIZE_TO_TRAY": false,
  "OPEN_ON_STARTUP": false,
  "DANGEROUS_ENABLE_DEVTOOLS_ONLY_ENABLE_IF_YOU_KNOW_WHAT_YOURE_DOING": true,
  "MIN_WIDTH": 940,
  "MIN_HEIGHT": 500
}